{
  "users": [
    {
      "id": 1,
      "username": "prasanna",
      "password": "prasanna",
      "email": "8464082533",
      "mobileNumber": "51815463",
      "address": "hyderabad"
    },
    {
      "username": "prasanna",
      "address": "MMMM",
      "email": "prasanna.danda@hcl.com",
      "password": "77777777",
      "mobileNumber": "8464082533",
      "id": 2
    },
    {
      "name": "sdsd",
      "description": "ssss",
      "price": "123",
      "rating": "excellent",
      "id": 3
    },
    {
      "name": "bag",
      "description": "light weight",
      "price": "200",
      "rating": "good",
      "id": 4
    },
    {
      "username": "sandeep",
      "address": "hyderbad",
      "email": "sandeep@hcl.com",
      "password": "12345",
      "mobileNumber": "9603557875",
      "id": 5
    },
   
    {
      "username": "prasanna",
      "address": "hyderbad",
      "email": "prasanna.danda@hcl.com",
      "password": "Pr6as5an4a#",
      "mobileNumber": "8464082533",
      "id": 7
    },
    {
      "username": "sandeep",
      "address": "hyderbad",
      "email": "prasanna@hcl.com",
      "password": "Pr6as5an4a#",
      "mobileNumber": "8464082533",
      "id": 8
    }
  ],
  "products": [
    {
      "id": 1,
      "productId": "prod1",
      "name": "laptop",
      "description": "HP Laptop",
      "price": "12222",
      "rating": "good"
    },
    {
      "name": "Bag",
      "productId": "prod2",
      "description": "lether",
      "price": "3000",
      "rating": "good",
      "id": 2
    },
    {
      "productId": "12",
      "name": "bag",
      "description": "black",
      "price": "2000",
      "rating": "good",
      "id": 3
    },
    {
      "productId": "12",
      "name": "bag",
      "description": "black",
      "price": "2000",
      "rating": "good",
      "id": 4
    },
    {
      "productId": "12",
      "name": "bag",
      "description": "black",
      "price": "2000",
      "rating": "good",
      "id": 5
    },
    {
      "productId": "123",
      "name": "fridge",
      "description": "red",
      "price": "1000",
      "rating": "good",
      "id": 6
    },
    {
      "productId": "123",
      "name": "fridge",
      "description": "cool",
      "price": "120",
      "rating": "good",
      "id": 7
    },
    {
      "productId": "120",
      "name": "desktop",
      "description": "black",
      "price": "2000",
      "rating": "good",
      "id": 8
    },
    {
      "productId": "12",
      "name": "dress",
      "description": "good",
      "price": "123",
      "rating": "good",
      "id": 9
    }
  ],
  "carts": [
    {
      "productId": "prod1",
      "productName": "rice1",
      "userId": "1",
      "productPrice": "246",
      "prodQty": "2",
      "id": 1
    },
    {
      "productId": "12",
      "name": "bag",
      "userId": "2",
      "price": "4000",
      "qty": {},
      "id": 2
    },
    {
      "productId": "12",
      "name": "bag",
      "userId": "2",
      "price": "4000",
      "qty": {},
      "id": 3
    },
    {
      "productId": "121",
      "name": "bag",
      "userId": "2",
      "price": "4000",
      "qty": {},
      "id": 4
    },
    {
      "productId": "121",
      "name": "bag2",
      "userId": "23",
      "price": "40000",
      "qty": {},
      "id": 5
    },
    {
      "productId": "1",
      "name": "pendrive",
      "userId": "1",
      "price": "12300",
      "prodQty": "123",
      "id": 6
    },
    {
      "productId": "1",
      "name": "pendrive",
      "userId": "1",
      "price": "12300",
      "prodQty": "123",
      "id": 7
    },
    {
      "productId": "123",
      "name": "fridge",
      "userId": "5",
      "price": "240",
      "prodQty": "2",
      "id": 8
    },
    {
      "productId": "123",
      "name": "fridge",
      "userId": "5",
      "price": "240",
      "prodQty": "2",
      "id": 9
    },
    {
      "productId": "123",
      "name": "fridge",
      "userId": "5",
      "price": "240",
      "prodQty": "2",
      "id": 10
    },
    {
      "productId": "prod1",
      "name": "laptop",
      "userId": "5",
      "price": "24444",
      "prodQty": "2",
      "id": 11
    },
    {
      "productId": "prod1",
      "name": "laptop",
      "userId": "2",
      "price": "24444",
      "prodQty": "2",
      "id": 12
    }
  ],
  "orders": [
    {
      "id": 1,
      "userId": 1,
      "productId": 1,
      "orderDate": "",
      "productName": "bag"
    },
    {
      "productId": "123",
      "name": "fridge",
      "userId": "5",
      "price": "240",
      "orderDate": "2020-5-14 0:22:13",
      "id": 2
    },
    {
      "productId": "123",
      "name": "fridge",
      "userId": "5",
      "price": "240",
      "orderDate": "2020-5-14 0:43:40",
      "id": 3
    },
    {
      "productId": "123",
      "name": "fridge",
      "userId": "5",
      "price": "240",
      "orderDate": "2020-5-14 0:43:44",
      "id": 4
    },
    {
      "productId": "123",
      "name": "fridge",
      "userId": "5",
      "price": "240",
      "orderDate": "2020-5-14 0:48:45",
      "id": 5
    },
    {
      "productId": "123",
      "name": "fridge",
      "userId": "5",
      "price": "240",
      "orderDate": "2020-5-14 12:44:21",
      "id": 6
    }
  ]
}